[
    {
        "roundNumber": 1,
        "meetingId": "1064",
        "country": "Bahrain",
        "location": "Sakhir",
        "officialEventName": "FORMULA 1 GULF AIR BAHRAIN GRAND PRIX 2021",
        "eventName": "Bahrain Grand Prix",
        "eventFormat": "conventional",
        "eventStartDate": "2021-03-26T00:00:00.000Z",
        "eventEndDate": "2021-03-28T20:10:00.000Z",
        "sessions": [
            {
                "name": "Practice 1",
                "startDate": "2021-03-26T11:30:00.000Z"
            },
            {
                "name": "Practice 2",
                "startDate": "2021-03-26T15:00:00.000Z"
            },
            {
                "name": "Practice 3",
                "startDate": "2021-03-27T12:00:00.000Z"
            },
            {
                "name": "Qualifying",
                "startDate": "2021-03-27T15:00:00.000Z"
            },
            {
                "name": "Race",
                "startDate": "2021-03-28T15:00:00.000Z"
            }
        ],
        "track": {
            "officialName": "Bahrain International Circuit",
            "direction": "Clockwise",
            "circuitType": "Permanent",
            "trackLength": 5.412
        },
        "images": {
            "circuitSmall": "https://media.formula1.com/image/upload/content/dam/fom-website/2018-redesign-assets/Track%20icons%204x3/Bahrain.png",
            "circuitMedium": "https://media.formula1.com/image/upload/content/dam/fom-website/2018-redesign-assets/Track%20icons%204x3/Bahrain%20carbon.png",
            "circuitMap": "https://media.formula1.com/image/upload/content/dam/fom-website/2018-redesign-assets/Circuit%20maps%2016x9/Bahrain_Circuit.png",
            "race": "https://media.formula1.com/image/upload/content/dam/fom-website/2018-redesign-assets/Racehub%20header%20images%2016x9/Bahrain.jpg",
            "countryFlag": "https://media.formula1.com/image/upload/content/dam/fom-website/2018-redesign-assets/Flags%2016x9/bahrain-flag.png"
        }
    },
    {
        "roundNumber": 2,
        "meetingId": "1065",
        "country": "Italy",
        "location": "Imola",
        "officialEventName": "FORMULA 1 PIRELLI GRAN PREMIO DEL MADE IN ITALY E DELL'EMILIA ROMAGNA 2021",
        "eventName": "Emilia Romagna Grand Prix",
        "eventFormat": "conventional",
        "eventStartDate": "2021-04-16T00:00:00.000Z",
        "eventEndDate": "2021-04-18T17:00:00.000Z",
        "sessions": [
            {
                "name": "Practice 1",
                "startDate": "2021-04-16T09:00:00.000Z"
            },
            {
                "name": "Practice 2",
                "startDate": "2021-04-16T12:30:00.000Z"
            },
            {
                "name": "Practice 3",
                "startDate": "2021-04-17T09:00:00.000Z"
            },
            {
                "name": "Qualifying",
                "startDate": "2021-04-17T12:00:00.000Z"
            },
            {
                "name": "Race",
                "startDate": "2021-04-18T13:00:00.000Z"
            }
        ],
        "track": {
            "officialName": "Autodromo Enzo e Dino Ferrari",
            "direction": "Anti-Clockwise",
            "circuitType": "Permanent",
            "trackLength": 4.909
        },
        "images": {
            "circuitSmall": "https://media.formula1.com/image/upload/content/dam/fom-website/2018-redesign-assets/Track%20icons%204x3/Emilia%20Romagna.png",
            "circuitMedium": "https://media.formula1.com/image/upload/content/dam/fom-website/2018-redesign-assets/Track%20icons%204x3/Emilia%20Romagna%20carbon.png",
            "circuitMap": "https://media.formula1.com/image/upload/content/dam/fom-website/2018-redesign-assets/Circuit%20maps%2016x9/Emilia_Romagna_Circuit.png",
            "race": "https://media.formula1.com/image/upload/content/dam/fom-website/2018-redesign-assets/Racehub%20header%20images%2016x9/Emilia%20Romagna.jpg",
            "countryFlag": "https://media.formula1.com/image/upload/content/dam/fom-website/2018-redesign-assets/Flags%2016x9/italy-flag.png"
        }
    },
    {
        "roundNumber": 3,
        "meetingId": "1066",
        "country": "Portugal",
        "location": "Portimão",
        "officialEventName": "FORMULA 1 HEINEKEN GRANDE PRÉMIO DE PORTUGAL 2021",
        "eventName": "Portuguese Grand Prix",
        "eventFormat": "conventional",
        "eventStartDate": "2021-04-30T00:00:00.000Z",
        "eventEndDate": "2021-05-02T17:00:00.000Z",
        "sessions": [
            {
                "name": "Practice 1",
                "startDate": "2021-04-30T10:30:00.000Z"
            },
            {
                "name": "Practice 2",
                "startDate": "2021-04-30T14:00:00.000Z"
            },
            {
                "name": "Practice 3",
                "startDate": "2021-05-01T11:00:00.000Z"
            },
            {
                "name": "Qualifying",
                "startDate": "2021-05-01T14:00:00.000Z"
            },
            {
                "name": "Race",
                "startDate": "2021-05-02T14:00:00.000Z"
            }
        ],
        "track": {
            "officialName": "Autódromo Internacional do Algarve",
            "direction": "Clockwise",
            "circuitType": "Permanent",
            "trackLength": 4.653
        },
        "images": {
            "circuitSmall": "https://media.formula1.com/image/upload/content/dam/fom-website/2018-redesign-assets/Track%20icons%204x3/Portugal.png",
            "circuitMedium": "https://media.formula1.com/image/upload/content/dam/fom-website/2018-redesign-assets/Track%20icons%204x3/Portugal%20carbon.png",
            "circuitMap": "https://media.formula1.com/image/upload/content/dam/fom-website/2018-redesign-assets/Circuit%20maps%2016x9/Portugal_Circuit.png",
            "race": "https://media.formula1.com/image/upload/content/dam/fom-website/2018-redesign-assets/Racehub%20header%20images%2016x9/Portugal.jpg",
            "countryFlag": "https://media.formula1.com/image/upload/content/dam/fom-website/2018-redesign-assets/Flags%2016x9/portugal-flag.png"
        }
    },
    {
        "roundNumber": 4,
        "meetingId": "1086",
        "country": "Spain",
        "location": "Barcelona",
        "officialEventName": "FORMULA 1 ARAMCO GRAN PREMIO DE ESPAÑA 2021",
        "eventName": "Spanish Grand Prix",
        "eventFormat": "conventional",
        "eventStartDate": "2021-05-07T00:00:00.000Z",
        "eventEndDate": "2021-05-09T17:10:00.000Z",
        "sessions": [
            {
                "name": "Practice 1",
                "startDate": "2021-05-07T09:30:00.000Z"
            },
            {
                "name": "Practice 2",
                "startDate": "2021-05-07T13:00:00.000Z"
            },
            {
                "name": "Practice 3",
                "startDate": "2021-05-08T10:00:00.000Z"
            },
            {
                "name": "Qualifying",
                "startDate": "2021-05-08T13:00:00.000Z"
            },
            {
                "name": "Race",
                "startDate": "2021-05-09T13:00:00.000Z"
            }
        ],
        "track": {
            "officialName": "Circuit de Barcelona-Catalunya",
            "direction": "Clockwise",
            "circuitType": "Permanent",
            "trackLength": 4.675
        },
        "images": {
            "circuitSmall": "https://media.formula1.com/image/upload/content/dam/fom-website/2018-redesign-assets/Track%20icons%204x3/Spain.png",
            "circuitMedium": "https://media.formula1.com/image/upload/content/dam/fom-website/2018-redesign-assets/Track%20icons%204x3/Spain%20carbon.png",
            "circuitMap": "https://media.formula1.com/image/upload/content/dam/fom-website/2018-redesign-assets/Circuit%20maps%2016x9/Spain_Circuit.png",
            "race": "https://media.formula1.com/image/upload/content/dam/fom-website/2018-redesign-assets/Racehub%20header%20images%2016x9/Spain.jpg",
            "countryFlag": "https://media.formula1.com/image/upload/content/dam/fom-website/2018-redesign-assets/Flags%2016x9/spain-flag.png"
        }
    },
    {
        "roundNumber": 5,
        "meetingId": "1067",
        "country": "Monaco",
        "location": "Monte Carlo",
        "officialEventName": "FORMULA 1 GRAND PRIX DE MONACO 2021",
        "eventName": "Monaco Grand Prix",
        "eventFormat": "conventional",
        "eventStartDate": "2021-05-20T00:00:00.000Z",
        "eventEndDate": "2021-05-23T17:10:00.000Z",
        "sessions": [
            {
                "name": "Practice 1",
                "startDate": "2021-05-20T09:30:00.000Z"
            },
            {
                "name": "Practice 2",
                "startDate": "2021-05-20T13:00:00.000Z"
            },
            {
                "name": "Practice 3",
                "startDate": "2021-05-22T10:00:00.000Z"
            },
            {
                "name": "Qualifying",
                "startDate": "2021-05-22T13:00:00.000Z"
            },
            {
                "name": "Race",
                "startDate": "2021-05-23T13:00:00.000Z"
            }
        ],
        "track": {
            "officialName": "Circuit de Monaco",
            "direction": "Clockwise",
            "circuitType": "Temporary - Street",
            "trackLength": 3.337
        },
        "images": {
            "circuitSmall": "https://media.formula1.com/image/upload/content/dam/fom-website/2018-redesign-assets/Track%20icons%204x3/Monte%20Carlo.png",
            "circuitMedium": "https://media.formula1.com/image/upload/content/dam/fom-website/2018-redesign-assets/Track%20icons%204x3/Monte%20Carlo%20carbon.png",
            "circuitMap": "https://media.formula1.com/image/upload/content/dam/fom-website/2018-redesign-assets/Circuit%20maps%2016x9/Monoco_Circuit.png",
            "race": "https://media.formula1.com/image/upload/content/dam/fom-website/2018-redesign-assets/Racehub%20header%20images%2016x9/Monaco.jpg",
            "countryFlag": "https://media.formula1.com/image/upload/content/dam/fom-website/2018-redesign-assets/Flags%2016x9/monaco-flag.png"
        }
    },
    {
        "roundNumber": 6,
        "meetingId": "1068",
        "country": "Azerbaijan",
        "location": "Baku",
        "officialEventName": "FORMULA 1 AZERBAIJAN GRAND PRIX 2021",
        "eventName": "Azerbaijan Grand Prix",
        "eventFormat": "conventional",
        "eventStartDate": "2021-06-04T00:00:00.000Z",
        "eventEndDate": "2021-06-06T18:00:00.000Z",
        "sessions": [
            {
                "name": "Practice 1",
                "startDate": "2021-06-04T08:30:00.000Z"
            },
            {
                "name": "Practice 2",
                "startDate": "2021-06-04T12:00:00.000Z"
            },
            {
                "name": "Practice 3",
                "startDate": "2021-06-05T09:00:00.000Z"
            },
            {
                "name": "Qualifying",
                "startDate": "2021-06-05T12:00:00.000Z"
            },
            {
                "name": "Race",
                "startDate": "2021-06-06T12:00:00.000Z"
            }
        ],
        "track": {
            "officialName": "Baku City Circuit",
            "direction": "Anti-Clockwise",
            "circuitType": "Temporary - Street",
            "trackLength": 6.003
        },
        "images": {
            "circuitSmall": "https://media.formula1.com/image/upload/content/dam/fom-website/2018-redesign-assets/Track%20icons%204x3/Azerbaijan.png",
            "circuitMedium": "https://media.formula1.com/image/upload/content/dam/fom-website/2018-redesign-assets/Track%20icons%204x3/Azerbaijan%20carbon.png",
            "circuitMap": "https://media.formula1.com/image/upload/content/dam/fom-website/2018-redesign-assets/Circuit%20maps%2016x9/Baku_Circuit.png",
            "race": "https://media.formula1.com/image/upload/content/dam/fom-website/2018-redesign-assets/Racehub%20header%20images%2016x9/Azerbaijan.jpg",
            "countryFlag": "https://media.formula1.com/image/upload/content/dam/fom-website/2018-redesign-assets/Flags%2016x9/azerbaijan-flag.png"
        }
    },
    {
        "roundNumber": 7,
        "meetingId": "1070",
        "country": "France",
        "location": "Le Castellet",
        "officialEventName": "FORMULA 1 EMIRATES GRAND PRIX DE FRANCE 2021",
        "eventName": "French Grand Prix",
        "eventFormat": "conventional",
        "eventStartDate": "2021-06-18T00:00:00.000Z",
        "eventEndDate": "2021-06-20T17:00:00.000Z",
        "sessions": [
            {
                "name": "Practice 1",
                "startDate": "2021-06-18T09:30:00.000Z"
            },
            {
                "name": "Practice 2",
                "startDate": "2021-06-18T13:00:00.000Z"
            },
            {
                "name": "Practice 3",
                "startDate": "2021-06-19T10:00:00.000Z"
            },
            {
                "name": "Qualifying",
                "startDate": "2021-06-19T13:00:00.000Z"
            },
            {
                "name": "Race",
                "startDate": "2021-06-20T13:00:00.000Z"
            }
        ],
        "track": {
            "officialName": "Circuit Paul Ricard",
            "direction": "Clockwise",
            "circuitType": "Permanent",
            "trackLength": 5.842
        },
        "images": {
            "circuitSmall": "https://media.formula1.com/image/upload/content/dam/fom-website/2018-redesign-assets/Track%20icons%204x3/France.png",
            "circuitMedium": "https://media.formula1.com/image/upload/content/dam/fom-website/2018-redesign-assets/Track%20icons%204x3/France%20carbon.png",
            "circuitMap": "https://media.formula1.com/image/upload/content/dam/fom-website/2018-redesign-assets/Circuit%20maps%2016x9/France_Circuit.png",
            "race": "https://media.formula1.com/image/upload/content/dam/fom-website/2018-redesign-assets/Racehub%20header%20images%2016x9/France.jpg",
            "countryFlag": "https://media.formula1.com/image/upload/content/dam/fom-website/2018-redesign-assets/Flags%2016x9/france-flag.png"
        }
    },
    {
        "roundNumber": 8,
        "meetingId": "1092",
        "country": "Austria",
        "location": "Spielberg",
        "officialEventName": "FORMULA 1 BWT GROSSER PREIS DER STEIERMARK 2021",
        "eventName": "Styrian Grand Prix",
        "eventFormat": "conventional",
        "eventStartDate": "2021-06-25T00:00:00.000Z",
        "eventEndDate": "2021-06-27T17:00:00.000Z",
        "sessions": [
            {
                "name": "Practice 1",
                "startDate": "2021-06-25T09:30:00.000Z"
            },
            {
                "name": "Practice 2",
                "startDate": "2021-06-25T13:00:00.000Z"
            },
            {
                "name": "Practice 3",
                "startDate": "2021-06-26T10:00:00.000Z"
            },
            {
                "name": "Qualifying",
                "startDate": "2021-06-26T13:00:00.000Z"
            },
            {
                "name": "Race",
                "startDate": "2021-06-27T13:00:00.000Z"
            }
        ],
        "track": {
            "officialName": "Red Bull Ring",
            "direction": "Clockwise",
            "circuitType": "Permanent",
            "trackLength": 4.318
        },
        "images": {
            "circuitSmall": "https://media.formula1.com/image/upload/content/dam/fom-website/2018-redesign-assets/Track%20icons%204x3/Styria.png",
            "circuitMedium": "https://media.formula1.com/image/upload/content/dam/fom-website/2018-redesign-assets/Track%20icons%204x3/Styria%20carbon.png",
            "circuitMap": "https://media.formula1.com/image/upload/content/dam/fom-website/2018-redesign-assets/Circuit%20maps%2016x9/Styria_Circuit.png",
            "race": "https://media.formula1.com/image/upload/content/dam/fom-website/2018-redesign-assets/Racehub%20header%20images%2016x9/Styria.jpg",
            "countryFlag": "https://media.formula1.com/image/upload/content/dam/fom-website/2018-redesign-assets/Flags%2016x9/austria-flag.png"
        }
    },
    {
        "roundNumber": 9,
        "meetingId": "1071",
        "country": "Austria",
        "location": "Spielberg",
        "officialEventName": "FORMULA 1 BWT GROSSER PREIS VON ÖSTERREICH 2021",
        "eventName": "Austrian Grand Prix",
        "eventFormat": "conventional",
        "eventStartDate": "2021-07-02T00:00:00.000Z",
        "eventEndDate": "2021-07-04T17:10:00.000Z",
        "sessions": [
            {
                "name": "Practice 1",
                "startDate": "2021-07-02T09:30:00.000Z"
            },
            {
                "name": "Practice 2",
                "startDate": "2021-07-02T13:00:00.000Z"
            },
            {
                "name": "Practice 3",
                "startDate": "2021-07-03T10:00:00.000Z"
            },
            {
                "name": "Qualifying",
                "startDate": "2021-07-03T13:00:00.000Z"
            },
            {
                "name": "Race",
                "startDate": "2021-07-04T13:00:00.000Z"
            }
        ],
        "track": {
            "officialName": "Red Bull Ring",
            "direction": "Clockwise",
            "circuitType": "Permanent",
            "trackLength": 4.318
        },
        "images": {
            "circuitSmall": "https://media.formula1.com/image/upload/content/dam/fom-website/2018-redesign-assets/Track%20icons%204x3/Austria.png",
            "circuitMedium": "https://media.formula1.com/image/upload/content/dam/fom-website/2018-redesign-assets/Track%20icons%204x3/Austria%20carbon.png",
            "circuitMap": "https://media.formula1.com/image/upload/content/dam/fom-website/2018-redesign-assets/Circuit%20maps%2016x9/Austria_Circuit.png",
            "race": "https://media.formula1.com/image/upload/content/dam/fom-website/2018-redesign-assets/Racehub%20header%20images%2016x9/Austria.jpg",
            "countryFlag": "https://media.formula1.com/image/upload/content/dam/fom-website/2018-redesign-assets/Flags%2016x9/austria-flag.png"
        }
    },
    {
        "roundNumber": 10,
        "meetingId": "1072",
        "country": "Great Britain",
        "location": "Silverstone",
        "officialEventName": "FORMULA 1 PIRELLI BRITISH GRAND PRIX 2021",
        "eventName": "British Grand Prix",
        "eventFormat": "sprint",
        "eventStartDate": "2021-07-16T00:00:00.000Z",
        "eventEndDate": "2021-07-18T17:00:00.000Z",
        "sessions": [
            {
                "name": "Practice 1",
                "startDate": "2021-07-16T13:30:00.000Z"
            },
            {
                "name": "Qualifying",
                "startDate": "2021-07-16T17:00:00.000Z"
            },
            {
                "name": "Practice 2",
                "startDate": "2021-07-17T11:00:00.000Z"
            },
            {
                "name": "Sprint",
                "startDate": "2021-07-17T15:30:00.000Z"
            },
            {
                "name": "Race",
                "startDate": "2021-07-18T14:00:00.000Z"
            }
        ],
        "track": {
            "officialName": "Silverstone Circuit",
            "direction": "Clockwise",
            "circuitType": "Permanent",
            "trackLength": 5.891
        },
        "images": {
            "circuitSmall": "https://media.formula1.com/image/upload/content/dam/fom-website/2018-redesign-assets/Track%20icons%204x3/Great%20Britain.png",
            "circuitMedium": "https://media.formula1.com/image/upload/content/dam/fom-website/2018-redesign-assets/Track%20icons%204x3/Great%20Britain%20carbon.png",
            "circuitMap": "https://media.formula1.com/image/upload/content/dam/fom-website/2018-redesign-assets/Circuit%20maps%2016x9/Great_Britain_Circuit.png",
            "race": "https://media.formula1.com/image/upload/content/dam/fom-website/2018-redesign-assets/Racehub%20header%20images%2016x9/Great%20Britain.jpg",
            "countryFlag": "https://media.formula1.com/image/upload/content/dam/fom-website/2018-redesign-assets/Flags%2016x9/united-kingdom-flag.png"
        }
    },
    {
        "roundNumber": 11,
        "meetingId": "1073",
        "country": "Hungary",
        "location": "Budapest",
        "officialEventName": "FORMULA 1 ROLEX MAGYAR NAGYDÍJ 2021",
        "eventName": "Hungarian Grand Prix",
        "eventFormat": "conventional",
        "eventStartDate": "2021-07-30T00:00:00.000Z",
        "eventEndDate": "2021-08-01T17:00:00.000Z",
        "sessions": [
            {
                "name": "Practice 1",
                "startDate": "2021-07-30T09:30:00.000Z"
            },
            {
                "name": "Practice 2",
                "startDate": "2021-07-30T13:00:00.000Z"
            },
            {
                "name": "Practice 3",
                "startDate": "2021-07-31T10:00:00.000Z"
            },
            {
                "name": "Qualifying",
                "startDate": "2021-07-31T13:00:00.000Z"
            },
            {
                "name": "Race",
                "startDate": "2021-08-01T13:00:00.000Z"
            }
        ],
        "track": {
            "officialName": "Hungaroring",
            "direction": "Clockwise",
            "circuitType": "Permanent",
            "trackLength": 4.381
        },
        "images": {
            "circuitSmall": "https://media.formula1.com/image/upload/content/dam/fom-website/2018-redesign-assets/Track%20icons%204x3/Hungary.png",
            "circuitMedium": "https://media.formula1.com/image/upload/content/dam/fom-website/2018-redesign-assets/Track%20icons%204x3/Hungar%20carbon.png",
            "circuitMap": "https://media.formula1.com/image/upload/content/dam/fom-website/2018-redesign-assets/Circuit%20maps%2016x9/Hungary_Circuit.png",
            "race": "https://media.formula1.com/image/upload/content/dam/fom-website/2018-redesign-assets/Racehub%20header%20images%2016x9/Hungary.jpg",
            "countryFlag": "https://media.formula1.com/image/upload/content/dam/fom-website/2018-redesign-assets/Flags%2016x9/hungary-flag.png"
        }
    },
    {
        "roundNumber": 12,
        "meetingId": "1074",
        "country": "Belgium",
        "location": "Spa-Francorchamps",
        "officialEventName": "FORMULA 1 ROLEX BELGIAN GRAND PRIX 2021",
        "eventName": "Belgian Grand Prix",
        "eventFormat": "conventional",
        "eventStartDate": "2021-08-27T00:00:00.000Z",
        "eventEndDate": "2021-08-29T17:00:00.000Z",
        "sessions": [
            {
                "name": "Practice 1",
                "startDate": "2021-08-27T09:30:00.000Z"
            },
            {
                "name": "Practice 2",
                "startDate": "2021-08-27T13:00:00.000Z"
            },
            {
                "name": "Practice 3",
                "startDate": "2021-08-28T10:00:00.000Z"
            },
            {
                "name": "Qualifying",
                "startDate": "2021-08-28T13:00:00.000Z"
            },
            {
                "name": "Race",
                "startDate": "2021-08-29T13:00:00.000Z"
            }
        ],
        "track": {
            "officialName": "Circuit de Spa-Francorchamps",
            "direction": "Clockwise",
            "circuitType": "Temporary - Road",
            "trackLength": 7.004
        },
        "images": {
            "circuitSmall": "https://media.formula1.com/image/upload/content/dam/fom-website/2018-redesign-assets/Track%20icons%204x3/Belgium.png",
            "circuitMedium": "https://media.formula1.com/image/upload/content/dam/fom-website/2018-redesign-assets/Track%20icons%204x3/Belgium%20carbon.png",
            "circuitMap": "https://media.formula1.com/image/upload/content/dam/fom-website/2018-redesign-assets/Circuit%20maps%2016x9/Belgium_Circuit.png",
            "race": "https://media.formula1.com/image/upload/content/dam/fom-website/2018-redesign-assets/Racehub%20header%20images%2016x9/Belgium.jpg",
            "countryFlag": "https://media.formula1.com/image/upload/content/dam/fom-website/2018-redesign-assets/Flags%2016x9/belgium-flag.png"
        }
    },
    {
        "roundNumber": 13,
        "meetingId": "1075",
        "country": "Netherlands",
        "location": "Zandvoort",
        "officialEventName": "FORMULA 1 HEINEKEN DUTCH GRAND PRIX 2021",
        "eventName": "Dutch Grand Prix",
        "eventFormat": "conventional",
        "eventStartDate": "2021-09-03T00:00:00.000Z",
        "eventEndDate": "2021-09-05T17:00:00.000Z",
        "sessions": [
            {
                "name": "Practice 1",
                "startDate": "2021-09-03T09:30:00.000Z"
            },
            {
                "name": "Practice 2",
                "startDate": "2021-09-03T13:00:00.000Z"
            },
            {
                "name": "Practice 3",
                "startDate": "2021-09-04T10:00:00.000Z"
            },
            {
                "name": "Qualifying",
                "startDate": "2021-09-04T13:00:00.000Z"
            },
            {
                "name": "Race",
                "startDate": "2021-09-05T13:00:00.000Z"
            }
        ],
        "track": {
            "officialName": "Circuit Zandvoort",
            "direction": "Clockwise",
            "circuitType": "Permanent",
            "trackLength": 4.259
        },
        "images": {}
    },
    {
        "roundNumber": 14,
        "meetingId": "1076",
        "country": "Italy",
        "location": "Monza",
        "officialEventName": "FORMULA 1 HEINEKEN GRAN PREMIO D’ITALIA 2021",
        "eventName": "Italian Grand Prix",
        "eventFormat": "sprint",
        "eventStartDate": "2021-09-10T00:00:00.000Z",
        "eventEndDate": "2021-09-12T17:00:00.000Z",
        "sessions": [
            {
                "name": "Practice 1",
                "startDate": "2021-09-10T12:30:00.000Z"
            },
            {
                "name": "Qualifying",
                "startDate": "2021-09-10T16:00:00.000Z"
            },
            {
                "name": "Practice 2",
                "startDate": "2021-09-11T10:00:00.000Z"
            },
            {
                "name": "Sprint",
                "startDate": "2021-09-11T14:30:00.000Z"
            },
            {
                "name": "Race",
                "startDate": "2021-09-12T13:00:00.000Z"
            }
        ],
        "track": {
            "officialName": "Autodromo Nazionale Monza",
            "direction": "Clockwise",
            "circuitType": "Permanent",
            "trackLength": 5.793
        },
        "images": {
            "circuitSmall": "https://media.formula1.com/image/upload/content/dam/fom-website/2018-redesign-assets/Track%20icons%204x3/Italy.png",
            "circuitMedium": "https://media.formula1.com/image/upload/content/dam/fom-website/2018-redesign-assets/Track%20icons%204x3/Italy%20carbon.png",
            "circuitMap": "https://media.formula1.com/image/upload/content/dam/fom-website/2018-redesign-assets/Circuit%20maps%2016x9/Italy_Circuit.png",
            "race": "https://media.formula1.com/image/upload/content/dam/fom-website/2018-redesign-assets/Racehub%20header%20images%2016x9/Italy.jpg",
            "countryFlag": "https://media.formula1.com/image/upload/content/dam/fom-website/2018-redesign-assets/Flags%2016x9/italy-flag.png"
        }
    },
    {
        "roundNumber": 15,
        "meetingId": "1077",
        "country": "Russia",
        "location": "Sochi",
        "officialEventName": "FORMULA 1 VTB RUSSIAN GRAND PRIX 2021",
        "eventName": "Russian Grand Prix",
        "eventFormat": "conventional",
        "eventStartDate": "2021-09-24T00:00:00.000Z",
        "eventEndDate": "2021-09-26T17:00:00.000Z",
        "sessions": [
            {
                "name": "Practice 1",
                "startDate": "2021-09-24T08:30:00.000Z"
            },
            {
                "name": "Practice 2",
                "startDate": "2021-09-24T12:00:00.000Z"
            },
            {
                "name": "Practice 3",
                "startDate": "2021-09-25T09:00:00.000Z"
            },
            {
                "name": "Qualifying",
                "startDate": "2021-09-25T12:00:00.000Z"
            },
            {
                "name": "Race",
                "startDate": "2021-09-26T12:00:00.000Z"
            }
        ],
        "track": {
            "officialName": "Sochi Autodrom",
            "direction": "Clockwise",
            "circuitType": "Permanent",
            "trackLength": 5.848
        },
        "images": {
            "circuitSmall": "https://media.formula1.com/image/upload/content/dam/fom-website/2018-redesign-assets/Track%20icons%204x3/Russia.png",
            "circuitMedium": "https://media.formula1.com/image/upload/content/dam/fom-website/2018-redesign-assets/Track%20icons%204x3/Russi%20carbon.png",
            "circuitMap": "https://media.formula1.com/image/upload/content/dam/fom-website/2018-redesign-assets/Circuit%20maps%2016x9/Russia_Circuit.png",
            "race": "https://media.formula1.com/image/upload/content/dam/fom-website/2018-redesign-assets/Racehub%20header%20images%2016x9/Russia.jpg",
            "countryFlag": "https://media.formula1.com/image/upload/content/dam/fom-website/2018-redesign-assets/Flags%2016x9/russia-flag.png"
        }
    },
    {
        "roundNumber": 16,
        "meetingId": "1078",
        "country": "Turkey",
        "location": "Istanbul",
        "officialEventName": "FORMULA 1 ROLEX TURKISH GRAND PRIX 2021",
        "eventName": "Turkish Grand Prix",
        "eventFormat": "conventional",
        "eventStartDate": "2021-10-08T00:00:00.000Z",
        "eventEndDate": "2021-10-10T17:00:00.000Z",
        "sessions": [
            {
                "name": "Practice 1",
                "startDate": "2021-10-08T08:30:00.000Z"
            },
            {
                "name": "Practice 2",
                "startDate": "2021-10-08T12:00:00.000Z"
            },
            {
                "name": "Practice 3",
                "startDate": "2021-10-09T09:00:00.000Z"
            },
            {
                "name": "Qualifying",
                "startDate": "2021-10-09T12:00:00.000Z"
            },
            {
                "name": "Race",
                "startDate": "2021-10-10T12:00:00.000Z"
            }
        ],
        "track": {
            "officialName": "Intercity Istanbul Park",
            "direction": "Anti-Clockwise",
            "circuitType": "Permanent",
            "trackLength": 5.338
        },
        "images": {
            "circuitSmall": "https://media.formula1.com/image/upload/content/dam/fom-website/2018-redesign-assets/Track%20icons%204x3/Turkey.png",
            "circuitMedium": "https://media.formula1.com/image/upload/content/dam/fom-website/2018-redesign-assets/Track%20icons%204x3/Turkey%20carbon.png",
            "circuitMap": "https://media.formula1.com/image/upload/content/dam/fom-website/2018-redesign-assets/Circuit%20maps%2016x9/Turkey_Circuit.png",
            "race": "https://media.formula1.com/image/upload/content/dam/fom-website/2018-redesign-assets/Racehub%20header%20images%2016x9/Turkey.jpg",
            "countryFlag": "https://media.formula1.com/image/upload/content/dam/fom-website/2018-redesign-assets/Flags%2016x9/turkey-flag.png"
        }
    },
    {
        "roundNumber": 17,
        "meetingId": "1102",
        "country": "United States",
        "location": "Austin",
        "officialEventName": "FORMULA 1 ARAMCO UNITED STATES GRAND PRIX 2021",
        "eventName": "United States Grand Prix",
        "eventFormat": "conventional",
        "eventStartDate": "2021-10-22T00:00:00.000Z",
        "eventEndDate": "2021-10-24T16:00:00.000Z",
        "sessions": [
            {
                "name": "Practice 1",
                "startDate": "2021-10-22T16:30:00.000Z"
            },
            {
                "name": "Practice 2",
                "startDate": "2021-10-22T20:00:00.000Z"
            },
            {
                "name": "Practice 3",
                "startDate": "2021-10-23T18:00:00.000Z"
            },
            {
                "name": "Qualifying",
                "startDate": "2021-10-23T21:00:00.000Z"
            },
            {
                "name": "Race",
                "startDate": "2021-10-24T19:00:00.000Z"
            }
        ],
        "track": {
            "officialName": "Circuit of The Americas",
            "direction": "Anti-Clockwise",
            "circuitType": "Permanent",
            "trackLength": 5.513
        },
        "images": {
            "circuitSmall": "https://media.formula1.com/image/upload/content/dam/fom-website/2018-redesign-assets/Track%20icons%204x3/USA.png",
            "circuitMedium": "https://media.formula1.com/image/upload/content/dam/fom-website/2018-redesign-assets/Track%20icons%204x3/USA%20carbon.png",
            "circuitMap": "https://media.formula1.com/image/upload/content/dam/fom-website/2018-redesign-assets/Circuit%20maps%2016x9/USA_Circuit.png",
            "race": "https://media.formula1.com/image/upload/content/dam/fom-website/2018-redesign-assets/Racehub%20header%20images%2016x9/USA.jpg",
            "countryFlag": "https://media.formula1.com/image/upload/content/dam/fom-website/2018-redesign-assets/Flags%2016x9/united-states-of-america-flag.png"
        }
    },
    {
        "roundNumber": 18,
        "meetingId": "1103",
        "country": "Mexico",
        "location": "Mexico City",
        "officialEventName": "FORMULA 1 GRAN PREMIO DE LA CIUDAD DE MÉXICO 2021",
        "eventName": "Mexico City Grand Prix",
        "eventFormat": "conventional",
        "eventStartDate": "2021-11-05T00:00:00.000Z",
        "eventEndDate": "2021-11-07T23:59:59.999Z",
        "sessions": [
            {
                "name": "Practice 1",
                "startDate": "2021-11-05T17:30:00.000Z"
            },
            {
                "name": "Practice 2",
                "startDate": "2021-11-05T21:00:00.000Z"
            },
            {
                "name": "Practice 3",
                "startDate": "2021-11-06T17:00:00.000Z"
            },
            {
                "name": "Qualifying",
                "startDate": "2021-11-06T20:00:00.000Z"
            },
            {
                "name": "Race",
                "startDate": "2021-11-07T19:00:00.000Z"
            }
        ],
        "track": {
            "officialName": "Autódromo Hermanos Rodríguez",
            "direction": "Clockwise",
            "circuitType": "Permanent",
            "trackLength": 4.304
        },
        "images": {
            "circuitSmall": "https://media.formula1.com/image/upload/content/dam/fom-website/2018-redesign-assets/Track%20icons%204x3/Mexico.png",
            "circuitMedium": "https://media.formula1.com/image/upload/content/dam/fom-website/2018-redesign-assets/Track%20icons%204x3/Mexico%20carbon.png",
            "circuitMap": "https://media.formula1.com/image/upload/content/dam/fom-website/2018-redesign-assets/Circuit%20maps%2016x9/Mexico_Circuit.png",
            "race": "https://media.formula1.com/image/upload/content/dam/fom-website/2018-redesign-assets/Racehub%20header%20images%2016x9/Mexico.jpg",
            "countryFlag": "https://media.formula1.com/image/upload/content/dam/fom-website/2018-redesign-assets/Flags%2016x9/mexico-flag.png"
        }
    },
    {
        "roundNumber": 19,
        "meetingId": "1104",
        "country": "Brazil",
        "location": "São Paulo",
        "officialEventName": "FORMULA 1 HEINEKEN GRANDE PRÊMIO DE SÃO PAULO 2021",
        "eventName": "São Paulo Grand Prix",
        "eventFormat": "sprint",
        "eventStartDate": "2021-11-12T00:00:00.000Z",
        "eventEndDate": "2021-11-14T16:00:00.000Z",
        "sessions": [
            {
                "name": "Practice 1",
                "startDate": "2021-11-12T15:30:00.000Z"
            },
            {
                "name": "Qualifying",
                "startDate": "2021-11-12T19:00:00.000Z"
            },
            {
                "name": "Practice 2",
                "startDate": "2021-11-13T15:00:00.000Z"
            },
            {
                "name": "Sprint",
                "startDate": "2021-11-13T19:30:00.000Z"
            },
            {
                "name": "Race",
                "startDate": "2021-11-14T17:00:00.000Z"
            }
        ],
        "track": {
            "officialName": "Autódromo José Carlos Pace",
            "direction": "Anti-Clockwise",
            "circuitType": "Permanent",
            "trackLength": 4.309
        },
        "images": {
            "circuitSmall": "https://media.formula1.com/image/upload/content/dam/fom-website/2018-redesign-assets/Track%20icons%204x3/Brazil.png",
            "circuitMedium": "https://media.formula1.com/image/upload/content/dam/fom-website/2018-redesign-assets/Track%20icons%204x3/Brazil%20carbon.png",
            "circuitMap": "https://media.formula1.com/image/upload/content/dam/fom-website/2018-redesign-assets/Circuit%20maps%2016x9/Brazil_Circuit.png",
            "race": "https://media.formula1.com/image/upload/content/dam/fom-website/2018-redesign-assets/Racehub%20header%20images%2016x9/Brazil.jpg",
            "countryFlag": "https://media.formula1.com/image/upload/content/dam/fom-website/2018-redesign-assets/Flags%2016x9/brazil-flag.png"
        }
    },
    {
        "roundNumber": 20,
        "meetingId": "1105",
        "country": "Qatar",
        "location": "Lusail",
        "officialEventName": "FORMULA 1 OOREDOO QATAR GRAND PRIX 2021",
        "eventName": "Qatar Grand Prix",
        "eventFormat": "conventional",
        "eventStartDate": "2021-11-19T00:00:00.000Z",
        "eventEndDate": "2021-11-21T19:00:00.000Z",
        "sessions": [
            {
                "name": "Practice 1",
                "startDate": "2021-11-19T10:30:00.000Z"
            },
            {
                "name": "Practice 2",
                "startDate": "2021-11-19T14:00:00.000Z"
            },
            {
                "name": "Practice 3",
                "startDate": "2021-11-20T11:00:00.000Z"
            },
            {
                "name": "Qualifying",
                "startDate": "2021-11-20T14:00:00.000Z"
            },
            {
                "name": "Race",
                "startDate": "2021-11-21T14:00:00.000Z"
            }
        ],
        "track": {
            "officialName": "Lusail International Circuit",
            "direction": "Clockwise",
            "circuitType": "Permanent",
            "trackLength": 5.38
        },
        "images": {
            "circuitSmall": "https://media.formula1.com/image/upload/content/dam/fom-website/2018-redesign-assets/Track%20icons%204x3/Qatar.png",
            "circuitMedium": "https://media.formula1.com/image/upload/content/dam/fom-website/2018-redesign-assets/Track icons 4x3/Qatar carbon.png",
            "circuitMap": "https://media.formula1.com/image/upload/content/dam/fom-website/2018-redesign-assets/Circuit%20maps%2016x9/Qatar_Circuit.png",
            "race": "https://media.formula1.com/image/upload/content/dam/fom-website/2018-redesign-assets/Racehub%20header%20images%2016x9/Qatar.jpg",
            "countryFlag": "https://media.formula1.com/image/upload/content/dam/fom-website/2018-redesign-assets/Flags%2016x9/qatar-flag.png"
        }
    },
    {
        "roundNumber": 21,
        "meetingId": "1106",
        "country": "Saudi Arabia",
        "location": "Jeddah",
        "officialEventName": "FORMULA 1 STC SAUDI ARABIAN GRAND PRIX 2021",
        "eventName": "Saudi Arabian Grand Prix",
        "eventFormat": "conventional",
        "eventStartDate": "2021-12-03T00:00:00.000Z",
        "eventEndDate": "2021-12-05T22:30:00.000Z",
        "sessions": [
            {
                "name": "Practice 1",
                "startDate": "2021-12-03T13:30:00.000Z"
            },
            {
                "name": "Practice 2",
                "startDate": "2021-12-03T17:00:00.000Z"
            },
            {
                "name": "Practice 3",
                "startDate": "2021-12-04T14:00:00.000Z"
            },
            {
                "name": "Qualifying",
                "startDate": "2021-12-04T17:00:00.000Z"
            },
            {
                "name": "Race",
                "startDate": "2021-12-05T17:30:00.000Z"
            }
        ],
        "track": {
            "officialName": "Jeddah Corniche Circuit",
            "direction": "Anti-Clockwise",
            "circuitType": "Temporary - Street",
            "trackLength": 6.174
        },
        "images": {
            "circuitSmall": "https://media.formula1.com/image/upload/content/dam/fom-website/2018-redesign-assets/Track%20icons%204x3/Saudi%20Arabia.png",
            "circuitMedium": "https://media.formula1.com/image/upload/content/dam/fom-website/2018-redesign-assets/Track%20icons%204x3/Saudi%20Arabia%20carbon.png",
            "circuitMap": "https://media.formula1.com/image/upload/content/dam/fom-website/2018-redesign-assets/Circuit%20maps%2016x9/Saudi_Arabia_Circuit.png",
            "race": "https://media.formula1.com/image/upload/content/dam/fom-website/2018-redesign-assets/Racehub%20header%20images%2016x9/Saudi_Arabia.jpg",
            "countryFlag": "https://media.formula1.com/image/upload/content/dam/fom-website/2018-redesign-assets/Flags%2016x9/saudi-arabia-flag.png"
        }
    },
    {
        "roundNumber": 22,
        "meetingId": "1107",
        "country": "Abu Dhabi",
        "location": "Yas Island",
        "officialEventName": "FORMULA 1 ETIHAD AIRWAYS ABU DHABI GRAND PRIX 2021",
        "eventName": "Abu Dhabi Grand Prix",
        "eventFormat": "conventional",
        "eventStartDate": "2021-12-10T00:00:00.000Z",
        "eventEndDate": "2021-12-12T19:00:00.000Z",
        "sessions": [
            {
                "name": "Practice 1",
                "startDate": "2021-12-10T09:30:00.000Z"
            },
            {
                "name": "Practice 2",
                "startDate": "2021-12-10T13:00:00.000Z"
            },
            {
                "name": "Practice 3",
                "startDate": "2021-12-11T10:00:00.000Z"
            },
            {
                "name": "Qualifying",
                "startDate": "2021-12-11T13:00:00.000Z"
            },
            {
                "name": "Race",
                "startDate": "2021-12-12T13:00:00.000Z"
            }
        ],
        "track": {
            "officialName": "Yas Marina Circuit",
            "direction": "Anti-Clockwise",
            "circuitType": "Permanent",
            "trackLength": 5.281
        },
        "images": {
            "circuitSmall": "https://media.formula1.com/image/upload/content/dam/fom-website/2018-redesign-assets/Track%20icons%204x3/Abu%20Dhabi.png",
            "circuitMedium": "https://media.formula1.com/image/upload/content/dam/fom-website/2018-redesign-assets/Track%20icons%204x3/Abu%20Dhab%20carbon.png",
            "circuitMap": "https://media.formula1.com/image/upload/content/dam/fom-website/2018-redesign-assets/Circuit%20maps%2016x9/Abu_Dhabi_Circuit.png",
            "race": "https://media.formula1.com/image/upload/content/dam/fom-website/2018-redesign-assets/Racehub%20header%20images%2016x9/Abu%20Dhabi.jpg",
            "countryFlag": "https://media.formula1.com/image/upload/content/dam/fom-website/2018-redesign-assets/Flags%2016x9/united-arab-emirates-flag.png"
        }
    }
]